{
    "test": {
        "name": "test",
        "latest_version": "0.1",
        "description": "It's a test file.",
        "long_description": "A handy dummy corpus used for testing (like in unit testing) purpose.",
        "url": "https://github.com/PyThaiNLP/pythainlp-corpus/",
        "project_urls": {
            "project_page": "https://www.thainlp.org/",
            "source": "https://github.com/PyThaiNLP/pythainlp-corpus/"
        },
        "license": "cc0-1.0",
        "authors": [
            "Wannaphong Phatthiyaphaibun"
        ],
        "author_email": "wannaphong@kkumail.com",
        "versions": {
            "0.0.0": {
                "filename": "test.txt",
                "download_url": "https://github.com/PyThaiNLP/pythainlp-corpus/releases/download/test-0.1/test.txt",
                "md5": "ff1f76282b7adcb310ffad3ecd867c3d",
                "pythainlp_version": "==1.0"
            },
            "0.0.1": {
                "filename": "test.txt",
                "download_url": "https://github.com/PyThaiNLP/pythainlp-corpus/releases/download/test-0.1/test.txt",
                "md5": "ff1f76282b7adcb310ffad3ecd867c3d",
                "pythainlp_version": "<2.0"
            },
            "0.0.2": {
                "filename": "test.txt",
                "download_url": "https://github.com/PyThaiNLP/pythainlp-corpus/releases/download/test-0.1/test.txt",
                "md5": "ff1f76282b7adcb310ffad3ecd867c3d",
                "pythainlp_version": "<=2.0"
            },
            "0.0.3": {
                "filename": "test.txt",
                "download_url": "https://github.com/PyThaiNLP/pythainlp-corpus/releases/download/test-0.1/test.txt",
                "md5": "ff1f76282b7adcb310ffad3ecd867c3d",
                "pythainlp_version": ">=2.1<2.2"
            },
            "0.0.4": {
                "filename": "test.txt",
                "download_url": "https://github.com/PyThaiNLP/pythainlp-corpus/releases/download/test-0.1/test.txt",
                "md5": "ff1f76282b7adcb310ffad3ecd867c3d",
                "pythainlp_version": "<2.0"
            },
            "0.0.5": {
                "filename": "test.txt",
                "download_url": "https://github.com/PyThaiNLP/pythainlp-corpus/releases/download/test-0.1/test.txt",
                "md5": "ff1f76282b7adcb310ffad3ecd867c3d",
                "pythainlp_version": ">2.2<2.3"
            },
            "0.0.6": {
                "filename": "test.txt",
                "download_url": "https://github.com/PyThaiNLP/pythainlp-corpus/releases/download/test-0.1/test.txt",
                "md5": "ff1f76282b7adcb310ffad3ecd867c3d",
                "pythainlp_version": ">=2.2<2.3"
            },
            "0.0.7": {
                "filename": "test.txt",
                "download_url": "https://github.com/PyThaiNLP/pythainlp-corpus/releases/download/test-0.1/test.txt",
                "md5": "ff1f76282b7adcb310ffad3ecd867c3d",
                "pythainlp_version": ">2.2"
            },
            "0.0.8": {
                "filename": "test.txt",
                "download_url": "https://github.com/PyThaiNLP/pythainlp-corpus/releases/download/test-0.1/test.txt",
                "md5": "ff1f76282b7adcb310ffad3ecd867c3d",
                "pythainlp_version": ">=2.2<=2.3"
            },
            "0.0.9": {
                "filename": "test.txt",
                "download_url": "https://github.com/PyThaiNLP/pythainlp-corpus/releases/download/test-0.1/test.txt",
                "md5": "ff1f76282b7adcb310ffad3ecd867c3d",
                "pythainlp_version": ">=2.*"
            },
            "0.0.10": {
                "filename": "test.txt",
                "download_url": "https://github.com/PyThaiNLP/pythainlp-corpus/releases/download/test-0.1/test.txt",
                "md5": "ff1f76282b7adcb310ffad3ecd867c3d",
                "pythainlp_version": ">=1.10"
            },
            "0.0.11": {
                "filename": "test.txt",
                "download_url": "https://github.com/PyThaiNLP/pythainlp-corpus/releases/download/test-0.1/test.txt",
                "md5": "ff1f76282b7adcb310ffad3ecd867c36",
                "pythainlp_version": ">=1.10"
            },
            "0.1": {
                "filename": "test.txt",
                "download_url": "https://github.com/PyThaiNLP/pythainlp-corpus/releases/download/test-0.1/test.txt",
                "md5": "ff1f76282b7adcb310ffad3ecd867c3d",
                "pythainlp_version": "*"
            }
        }
    },
    "g2p": {
        "name": "g2p",
        "latest_version": "0.1",
        "description": "Thai grapheme to phoneme",
        "long_description": "Data from Thai Wiktionary)",
        "url": "https://github.com/PyThaiNLP/lexicon-thai/tree/master/G2P",
        "authors": [
            "Wannaphong Phatthiyaphaibun"
        ],
        "author_email": "wannaphong@kkumail.com",
        "license": "cc-by-4.0",
        "versions": {
            "0.1": {
                "filename": "wiktionary-11-2-2020.tsv",
                "download_url": "https://raw.githubusercontent.com/PyThaiNLP/lexicon-thai/master/G2P/wiktionary-11-2-2020.tsv",
                "md5": "-",
                "pythainlp_version": ">=2.2"
            }
        }
    },
    "thai-g2p": {
        "name": "thai-g2p",
        "latest_version": "0.1",
        "description": "Thai grapheme to phoneme (PyTorch)",
        "long_description": "Thai grapheme to phoneme in PyTorch",
        "url": "https://github.com/wannaphong/thai-g2p/",
        "authors": [
            "Wannaphong Phatthiyaphaibun"
        ],
        "author_email": "wannaphong@kkumail.com",
        "license": "cc-by-4.0",
        "versions": {
            "0.1": {
                "filename": "thaig2p-0.1.tar",
                "download_url": "https://github.com/PyThaiNLP/pythainlp-corpus/releases/download/thaig2p-v0.1/thaig2p-0.1.tar",
                "md5": "-",
                "pythainlp_version": ">=2.2"
            }
        }
    },
    "thai2fit_wv": {
        "name": "thai2fit_wv",
        "latest_version": "0.1",
        "description": "thai2vec word embeddings",
        "long_description": "-",
        "url": "https://github.com/cstorm125/thai2fit/",
        "authors": [
            "Charin Polpanumas"
        ],
        "author_email": "",
        "license": "cc-by-4.0",
        "versions": {
            "0.1": {
                "filename": "thai2vec.bin",
                "download_url": "https://github.com/PyThaiNLP/pythainlp-corpus/releases/download/thai2fit_wv-v0.1/thai2vec.bin",
                "md5": "-",
                "pythainlp_version": ">=2.2"
            }
        }
    },
    "thai2rom-dataset": {
        "name": "thai2rom-dataset",
        "latest_version": "0.1",
        "description": "Thai romanization model",
        "long_description": "-",
        "url": "https://github.com/wannaphong/thai-romanization/",
        "authors": [
            "Wannaphong Phatthiyaphaibun"
        ],
        "author_email": "wannaphong@kkumail.com",
        "license": "cc0-1.0",
        "versions": {
            "0.1": {
                "filename": "thai2rom.csv",
                "download_url": "https://raw.githubusercontent.com/wannaphong/thai-romanization/master/dataset/data.csv",
                "md5": "-",
                "pythainlp_version": ">=2.2"
            }
        }
    },
    "thai2rom-pytorch": {
        "name": "thai2rom-pytorch",
        "latest_version": "0.1",
        "description": "Thai romanization model (LSTM)",
        "long_description": "Thai romanization using LSTM encoder-decoder model",
        "url": "https://github.com/c4n/thai-romanization/",
        "authors": [
            "Can Udomcharoenchaikit"
        ],
        "author_email": "",
        "license": "apache-2.0",
        "versions": {
            "0.1": {
                "filename": "thai2rom-pytorch.tar",
                "download_url": "https://raw.githubusercontent.com/c4n/thai-romanization/master/notebook/thai2rom-pytorch.tar",
                "md5": "-",
                "pythainlp_version": ">=2.2"
            }
        }
    },
    "thai2rom-pytorch-attn": {
        "name": "thai2rom-pytorch-attn",
        "latest_version": "0.1",
        "description": "Thai romanization model (LSTM-Attention)",
        "long_description": "Thai romanization using LSTM encoder-decoder model with attention mechanism",
        "url": "https://github.com/artificiala/thai-romanization/",
        "authors": [
            "Chakri Lowphansirikul"
        ],
        "author_email": "",
        "license": "apache-2.0",
        "versions": {
            "0.1": {
                "filename": "thai2rom-pytorch-attn-v0.1.tar",
                "download_url": "https://raw.githubusercontent.com/artificiala/thai-romanization/master/notebook/thai2rom-pytorch-attn-v0.1.tar",
                "md5": "-",
                "pythainlp_version": ">=2.2"
            }
        }
    },
    "thainer": {
        "name": "thainer",
        "latest_version": "1.4",
        "description": "Thai Named Entity Recognition",
        "long_description": "Thai Named Entity Recognition",
        "url": "https://github.com/wannaphong/thai-ner/",
        "authors": [
            "Wannaphong Phatthiyaphaibun"
        ],
        "author_email": "wannaphong@kkumail.com",
        "license": "cc-by-4.0",
        "versions": {
            "1.3": {
                "filename": "thai-ner-1-3.crfsuite",
                "download_url": "https://github.com/PyThaiNLP/pythainlp-corpus/releases/download/thainer-1.3/data.model",
                "md5": "-",
                "pythainlp_version": "<=2.2"
            },
            "1.4": {
                "filename": "thai-ner-1-4.crfsuite",
                "download_url": "https://github.com/PyThaiNLP/pythainlp-corpus/releases/download/thainer-1.4/thai-ner-1-4.crfsuite",
                "md5": "-",
                "pythainlp_version": ">=2.2"
            }
        }
    },
    "wiki_itos_lstm": {
        "name": "wiki_itos_lstm",
        "latest_version": "0.32",
        "description": "ULMFit index to text for LSTM",
        "long_description": "ULMFit index to text for LSTM",
        "url": "https://github.com/cstorm125/thai2fit/",
        "authors": [
            "Charin Polpanumas"
        ],
        "author_email": "",
        "license": "cc-by-4.0",
        "versions": {
            "0.32": {
                "filename": "itos_lstm.pkl",
                "download_url": "https://github.com/PyThaiNLP/pythainlp-corpus/releases/download/wiki_itos_lstm-v0.32/thwiki_itos.pkl",
                "md5": "-",
                "pythainlp_version": ">=2.2"
            }
        }
    },
    "wiki_lm_lstm": {
        "name": "wiki_lm_lstm",
        "latest_version": "0.32",
        "description": "Wikipedia-pretrained ULMFit language model for LSTM",
        "long_description": "Wikipedia-pretrained ULMFit language model for LSTM",
        "url": "https://github.com/cstorm125/thai2fit/",
        "authors": [
            "Charin Polpanumas"
        ],
        "author_email": "",
        "license": "cc-by-4.0",
        "versions": {
            "0.32": {
                "filename": "thwiki_model_lstm.pth",
                "download_url": "https://github.com/PyThaiNLP/pythainlp-corpus/releases/download/wiki_lm_lstm-v0.32/thwiki_model_lstm.pth",
                "md5": "-",
                "pythainlp_version": ">=2.2"
            }
        }
    },
    "scb_1m_th-en_newmm": {
        "name": "scb_1m_th-en_newmm",
        "latest_version": "1.0",
        "description": "SCB_1M+TBASE_th-en_newmm-moses.",
        "long_description": "-",
        "url": "https://airesearch.in.th/releases/machine-translation-models/",
        "project_urls": {
            "project_page": "https://airesearch.in.th/",
            "source": "https://github.com/vistec-AI/model-releases/releases/tag/SCB_1M%2BTBASE_v1.0"
        },
        "license": "-",
        "authors": [
            "VISTEC-depa Thailand Artificial Intelligence Research Institute"
        ],
        "author_email": "-",
        "versions": {
            "1.0": {
                "filename": "SCB_1M-MT_OPUS+TBASE_th-en_newmm-moses_130000-130000_v1.0.tar.gz",
                "download_url": "https://github.com/vistec-AI/model-releases/releases/download/SCB_1M%2BTBASE_v1.0/SCB_1M-MT_OPUS+TBASE_th-en_newmm-moses_130000-130000_v1.0.tar.gz",
                "md5": "-",
                "pythainlp_version": ">=2.2"
            }
        }
    },
    "scb_1m_th-en_spm": {
        "name": "scb_1m_th-en_spm",
        "latest_version": "1.0",
        "description": "SCB_1M+TBASE_th-en_spm-spm.",
        "long_description": "-",
        "url": "https://airesearch.in.th/releases/machine-translation-models/",
        "project_urls": {
            "project_page": "https://airesearch.in.th/",
            "source": "https://github.com/vistec-AI/model-releases/releases/tag/SCB_1M%2BTBASE_v1.0"
        },
        "license": "-",
        "authors": [
            "VISTEC-depa Thailand Artificial Intelligence Research Institute"
        ],
        "author_email": "-",
        "versions": {
            "1.0": {
                "filename": "SCB_1M-MT_OPUS+TBASE_th-en_spm-spm_32000-joined_v1.0.tar.gz",
                "download_url": "https://github.com/vistec-AI/model-releases/releases/download/SCB_1M%2BTBASE_v1.0/SCB_1M-MT_OPUS+TBASE_th-en_spm-spm_32000-joined_v1.0.tar.gz",
                "md5": "-",
                "pythainlp_version": ">=2.2"
            }
        }
    },
    "scb_1m_en-th_moses": {
        "name": "scb_1m_en-th_moses",
        "latest_version": "1.0",
        "description": "SCB_1M+TBASE_en-th_moses-spm.",
        "long_description": "-",
        "url": "https://airesearch.in.th/releases/machine-translation-models/",
        "project_urls": {
            "project_page": "https://airesearch.in.th/",
            "source": "https://github.com/vistec-AI/model-releases/releases/tag/SCB_1M%2BTBASE_v1.0"
        },
        "license": "-",
        "authors": [
            "VISTEC-depa Thailand Artificial Intelligence Research Institute"
        ],
        "author_email": "-",
        "versions": {
            "1.0": {
                "filename": "SCB_1M-MT_OPUS+TBASE_en-th_moses-spm_130000-16000_v1.0.tar.gz",
                "download_url": "https://github.com/vistec-AI/model-releases/releases/download/SCB_1M%2BTBASE_v1.0/SCB_1M-MT_OPUS+TBASE_en-th_moses-spm_130000-16000_v1.0.tar.gz",
                "md5": "-",
                "pythainlp_version": ">=2.2"
            }
        }
    },
    "scb_1m_en-th_spm": {
        "name": "scb_1m_en-th_spm",
        "latest_version": "1.0",
        "description": "scb_1m_en-th_spm",
        "long_description": "-",
        "url": "https://airesearch.in.th/releases/machine-translation-models/",
        "project_urls": {
            "project_page": "https://airesearch.in.th/",
            "source": "https://github.com/vistec-AI/model-releases/releases/tag/SCB_1M%2BTBASE_v1.0"
        },
        "license": "-",
        "authors": [
            "VISTEC-depa Thailand Artificial Intelligence Research Institute"
        ],
        "author_email": "-",
        "versions": {
            "1.0": {
                "filename": "SCB_1M-MT_OPUS+TBASE_en-th_spm-spm_32000-joined_v1.0.tar.gz",
                "download_url": "https://github.com/vistec-AI/model-releases/releases/download/SCB_1M%2BTBASE_v1.0/SCB_1M-MT_OPUS+TBASE_en-th_spm-spm_32000-joined_v1.0.tar.gz",
                "md5": "-",
                "pythainlp_version": ">=2.2"
            }
        }
    },
    "scb_en_th": {
        "name": "scb_en_th",
        "latest_version": "1.0",
        "description": "scb_1m_en-th_spm",
        "long_description": "-",
        "url": "https://airesearch.in.th/releases/machine-translation-models/",
        "project_urls": {
            "project_page": "https://airesearch.in.th/",
            "source": "https://github.com/vistec-AI/model-releases/releases/tag/SCB_1M%2BTBASE_v1.0"
        },
        "license": "-",
        "authors": [
            "VISTEC-depa Thailand Artificial Intelligence Research Institute"
        ],
        "author_email": "-",
        "versions": {
            "1.0": {
                "filename": "SCB_1M-MT_OPUS+TBASE_en-th_moses-newmm_space_130000-130000_v1.0.tar.gz",
                "download_url": "https://github.com/vistec-AI/model-releases/releases/download/SCB_1M%2BTBASE_v1.0/SCB_1M-MT_OPUS+TBASE_en-th_moses-newmm_space_130000-130000_v1.0.tar.gz",
                "md5": "-",
                "pythainlp_version": ">=2.2"
            }
        }
    },
    "scb_th_en": {
        "name": "scb_th_en",
        "latest_version": "1.0",
        "description": "scb_1m_en-th_spm",
        "long_description": "-",
        "url": "https://airesearch.in.th/releases/machine-translation-models/",
        "project_urls": {
            "project_page": "https://airesearch.in.th/",
            "source": "https://github.com/vistec-AI/model-releases/releases/tag/SCB_1M%2BTBASE_v1.0"
        },
        "license": "-",
        "authors": [
            "VISTEC-depa Thailand Artificial Intelligence Research Institute"
        ],
        "author_email": "-",
        "versions": {
            "1.0": {
                "filename": "SCB_1M-MT_OPUS+TBASE_th-en_spm-moses_16000-130000_v1.0.tar.gz",
                "download_url": "https://github.com/vistec-AI/model-releases/releases/download/SCB_1M%2BTBASE_v1.0/SCB_1M-MT_OPUS+TBASE_th-en_spm-moses_16000-130000_v1.0.tar.gz",
                "md5": "-",
                "pythainlp_version": ">=2.2"
            }
        }
    },
    "pos_lst20_perceptron": {
        "name": "pos_lst20_perceptron",
        "latest_version": "0.2.3",
        "description": "Perceptron POS tagger (LST20)",
        "long_description": "Perceptron part-of-speech tagger from LST20 dataset",
        "url": "https://github.com/PyThaiNLP/",
        "project_urls": {
            "project_page": "https://github.com/PyThaiNLP/",
            "source": "https://github.com/PyThaiNLP/pythainlp-corpus/releases/tag/lst20-v0.2.2"
        },
        "license": "cc0-1.0",
        "authors": [
            "Wannaphong Phatthiyaphaibun"
        ],
        "author_email": "wannaphong@kkumail.com",
        "versions": {
            "0.2.2": {
                "filename": "pos_lst20_perceptron.pkl",
                "download_url": "https://github.com/PyThaiNLP/pythainlp-corpus/releases/download/lst20-v0.2.2/pos_lst20_perceptron-v0.2.2.pkl",
                "md5": "-",
                "pythainlp_version": ">=2.2<2.2.6"
            },
            "0.2.3": {
                "filename": "pos_lst20_perceptron.pkl",
                "download_url": "https://github.com/PyThaiNLP/pythainlp-corpus/releases/download/lst20-v0.2.3/pos_lst20_perceptron-v0.2.3.pkl",
                "md5": "-",
                "pythainlp_version": ">=2.2.6"
            }
        }
    },
    "pos_lst20_unigram": {
        "name": "pos_lst20_unigram",
        "latest_version": "0.2.3",
        "description": "Unigram POS tagger (LST20)",
        "long_description": "Unigram part-of-speech tagger from LST20 dataset",
        "url": "https://github.com/PyThaiNLP/",
        "project_urls": {
            "project_page": "https://github.com/PyThaiNLP/",
            "source": "https://github.com/PyThaiNLP/pythainlp-corpus/releases/tag/lst20-v0.2.2"
        },
        "license": "cc0-1.0",
        "authors": [
            "Wannaphong Phatthiyaphaibun"
        ],
        "author_email": "wannaphong@kkumail.com",
        "versions": {
            "0.2.2": {
                "filename": "pos_lst20_unigram.json",
                "download_url": "https://github.com/PyThaiNLP/pythainlp-corpus/releases/download/lst20-v0.2.2/pos_lst20_unigram-v0.2.2.json",
                "md5": "-",
                "pythainlp_version": ">=2.2"
            },
            "0.2.3": {
                "filename": "pos_lst20_unigram.json",
                "download_url": "https://github.com/PyThaiNLP/pythainlp-corpus/releases/download/lst20-v0.2.3/pos_lst20_unigram-v0.2.3.json",
                "md5": "-",
                "pythainlp_version": ">=2.2"
            }
        }
    },
    "lst20-cls": {
        "name": "lst20-cls",
        "latest_version": "0.2",
        "description": "lst20-cls (LST20)",
        "long_description": "CLS from LST20 dataset",
        "url": "https://github.com/PyThaiNLP/",
        "project_urls": {
            "project_page": "https://github.com/PyThaiNLP/",
            "source": "https://github.com/PyThaiNLP/pythainlp-corpus/tree/lst20-cls-v0.1"
        },
        "license": "cc0-1.0",
        "authors": [
            "Wannaphong Phatthiyaphaibun"
        ],
        "author_email": "wannaphong@kkumail.com",
        "versions": {
            "0.1": {
                "filename": "cls.crfsuite",
                "download_url": "https://github.com/PyThaiNLP/pythainlp-corpus/releases/download/lst20-cls-v0.1/cls.crfsuite",
                "md5": "-",
                "pythainlp_version": ">=2.2"
            },
            "0.2": {
                "filename": "cls-v0.2.crfsuite",
                "download_url": "https://github.com/PyThaiNLP/pythainlp-corpus/releases/download/lst20-cls-v0.2/cls-v0.2.crfsuite",
                "md5": "-",
                "pythainlp_version": ">=2.2"
            }
        }
    },
    "thai_w2p": {
        "name": "thai_w2p",
        "latest_version": "0.1",
        "description": "Thai Word-to-Phoneme (W2P) converter ",
        "long_description": "Thai Word-to-Phoneme (W2P) converter",
        "url": "https://github.com/wannaphong/Thai_W2P",
        "project_urls": {
            "project_page": "https://github.com/wannaphong/Thai_W2P",
            "source": "https://github.com/wannaphong/Thai_W2P"
        },
        "license": "cc0-1.0",
        "authors": [
            "Wannaphong Phatthiyaphaibun"
        ],
        "author_email": "wannaphong@kkumail.com",
        "versions": {
            "0.1": {
                "filename": "w2p_0.1.npy",
                "download_url": "https://github.com/wannaphong/Thai_W2P/releases/download/v0.1/w2p_0.1.npy",
                "md5": "-",
                "pythainlp_version": ">=2.2.6"
            }
        }
    }
}
